<!-- Generated by IcoMoon.io -->
<svg version="1.1" xmlns="http://www.w3.org/2000/svg" width="768" height="768" viewBox="0 0 768 768">
<title></title>
<g id="icomoon-ignore">
</g>
<path fill="#000" d="M576 480c-35.2 0-67.2 16-89.6 38.4l-169.6-99.2c0-12.8 3.2-22.4 3.2-35.2s-3.2-22.4-6.4-35.2l169.6-99.2c25.6 22.4 57.6 38.4 92.8 38.4 70.4 0 128-57.6 128-128s-57.6-128-128-128-128 57.6-128 128c0 12.8 3.2 22.4 6.4 35.2l-172.8 99.2c-22.4-22.4-54.4-38.4-89.6-38.4-70.4 0-128 57.6-128 128s57.6 128 128 128c35.2 0 67.2-16 89.6-38.4l169.6 99.2c0 12.8-3.2 22.4-3.2 35.2 0 70.4 57.6 128 128 128s128-57.6 128-128-57.6-128-128-128zM576 96c35.2 0 64 28.8 64 64s-28.8 64-64 64-64-28.8-64-64 28.8-64 64-64zM192 448c-35.2 0-64-28.8-64-64s28.8-64 64-64 64 28.8 64 64c0 35.2-28.8 64-64 64zM576 672c-35.2 0-64-28.8-64-64 0-12.8 3.2-22.4 9.6-32 0 0 0 0 0 0s0 0 0 0c9.6-19.2 32-32 54.4-32 35.2 0 64 28.8 64 64s-28.8 64-64 64z"></path>
</svg>
